DM Object: box 4 MPI processes
  type: plex
box in 2 dimensions:
  Number of 0-cells per rank: 30 30 30 30
  Number of 1-cells per rank: 44 44 44 44
  Number of 2-cells per rank: 16 16 16 16
Labels:
  celltype: 3 strata with value/size (0 (30), 1 (44), 4 (16))
  depth: 3 strata with value/size (0 (30), 1 (44), 2 (16))
  marker: 1 strata with value/size (1 (27))
  Face Sets: 3 strata with value/size (1 (6), 2 (6), 4 (6))
  Linear solve converged due to CONVERGED_RTOL iterations 8
  Linear solve converged due to CONVERGED_RTOL iterations 8
  Linear solve converged due to CONVERGED_RTOL iterations 8
  Linear solve converged due to CONVERGED_RTOL iterations 8
  Linear solve converged due to CONVERGED_RTOL iterations 8
  Linear solve converged due to CONVERGED_RTOL iterations 8
  Linear solve converged due to CONVERGED_RTOL iterations 8
  Linear solve converged due to CONVERGED_RTOL iterations 8
  Linear solve converged due to CONVERGED_RTOL iterations 8
  Linear solve converged due to CONVERGED_RTOL iterations 8
  Linear solve converged due to CONVERGED_RTOL iterations 8
