  Linear solve converged due to CONVERGED_RTOL iterations 11
Nonlinear solve converged due to CONVERGED_ITS iterations 1
DM Object: Mesh (ex56_) 4 MPI processes
  type: plex
Mesh in 3 dimensions:
  Number of 0-cells per rank: 8 8 8 8
  Number of 1-cells per rank: 12 12 12 12
  Number of 2-cells per rank: 6 6 6 6
  Number of 3-cells per rank: 1 1 1 1
Labels:
  depth: 4 strata with value/size (0 (8), 1 (12), 2 (6), 3 (1))
  marker: 1 strata with value/size (1 (15))
  Face Sets: 4 strata with value/size (1 (1), 2 (1), 3 (1), 6 (1))
  boundary: 1 strata with value/size (1 (23))
  celltype: 4 strata with value/size (0 (8), 1 (12), 4 (6), 7 (1))
Field deformation:
  adjacency FEM
  Linear solve converged due to CONVERGED_RTOL iterations 16
Nonlinear solve converged due to CONVERGED_ITS iterations 1
DM Object: Mesh (ex56_) 4 MPI processes
  type: plex
Mesh in 3 dimensions:
  Number of 0-cells per rank: 27 27 27 27
  Number of 1-cells per rank: 54 54 54 54
  Number of 2-cells per rank: 36 36 36 36
  Number of 3-cells per rank: 8 8 8 8
Labels:
  celltype: 4 strata with value/size (0 (27), 1 (54), 4 (36), 7 (8))
  depth: 4 strata with value/size (0 (27), 1 (54), 2 (36), 3 (8))
  marker: 1 strata with value/size (1 (69))
  Face Sets: 4 strata with value/size (1 (9), 2 (9), 3 (9), 6 (9))
  boundary: 1 strata with value/size (1 (77))
Field deformation:
  adjacency FEM
[0] 1) N=        1815, max displ=5.9169538e+01, disp diff= 3.45e+00, error=8.057e-01, rate=2.4
